FPGA/waveform.vcd
$version Generated by VerilatedVcd $end
$timescale 1ps $end
 $scope module TOP $end
  $var wire 1 Q fpgaClk $end
  $var wire 1 R fpgaMOSI $end
  $var wire 1 S fpgaNCS $end
  $var wire 1 T fpgaMISO $end
  $var wire 1 U gnssPPS $end
  $var wire 1 V clk40MHz $end
  $var wire 1 W rfPushBase $end
  $var wire 1 X rfPushPeak $end
  $var wire 1 Y rfPullBase $end
  $var wire 1 Z rfPullPeak $end
  $scope module Top $end
   $var wire 1 Q fpgaClk $end
   $var wire 1 R fpgaMOSI $end
   $var wire 1 S fpgaNCS $end
   $var wire 1 T fpgaMISO $end
   $var wire 1 U gnssPPS $end
   $var wire 1 V clk40MHz $end
   $var wire 1 W rfPushBase $end
   $var wire 1 X rfPushPeak $end
   $var wire 1 Y rfPullBase $end
   $var wire 1 Z rfPullPeak $end
   $var wire 1 V clk $end
   $var wire 1 # pllLocked $end
   $var wire 32 $ ppsCount [31:0] $end
   $var wire 32 % ppsFallVal [31:0] $end
   $var wire 32 & ppsRiseVal [31:0] $end
   $var wire 32 ' ppsEdges [31:0] $end
   $var wire 3 ( ppsSync [2:0] $end
   $var wire 1 ) ppsF $end
   $var wire 1 * ppsR $end
   $var wire 40 + spiShift [39:0] $end
   $var wire 6 - spiBits [5:0] $end
   $var wire 3 . sclkS [2:0] $end
   $var wire 3 / mosiS [2:0] $end
   $var wire 3 0 ncsS [2:0] $end
   $var wire 1 1 sclkR $end
   $var wire 1 2 sclkF $end
   $var wire 1 3 ncsA $end
   $var wire 32 4 regControl [31:0] $end
   $var wire 32 5 regTuning [31:0] $end
   $var wire 32 6 regSymbol [31:0] $end
   $var wire 32 7 regPwrThresh [31:0] $end
   $var wire 32 8 regToneSpacing [31:0] $end
   $var wire 32 9 spiRdData [31:0] $end
   $var wire 7 : spiAddr [6:0] $end
   $var wire 3 ; p4StR [2:0] $end
   $var wire 32 < p1Inc [31:0] $end
   $var wire 1 = misoOut $end
   $var wire 32 > p2Acc [31:0] $end
   $var wire 1 ? p5EnR $end
   $var wire 1 @ txActive $end
   $var wire 1 A r1 $end
   $var wire 1 B r2 $end
   $var wire 1 C r3 $end
   $var wire 1 D r4 $end
   $var wire 1 E gr1 $end
   $var wire 1 F gr2 $end
   $var wire 1 G gr3 $end
   $var wire 1 H gr4 $end
   $scope module io0 $end
    $var wire 6 [ PIN_TYPE [5:0] $end
    $var wire 1 \ PULLUP [0:0] $end
    $var wire 1 \ NEG_TRIGGER [0:0] $end
    $var wire 72 ] IO_STANDARD [71:0] $end
    $var wire 1 W PACKAGE_PIN $end
    $var wire 1 W PACKAGE_PIN_OUT $end
    $var wire 1 V OUTPUT_CLK $end
    $var wire 1 ` CLOCK_ENABLE $end
    $var wire 1 ` OUTPUT_ENABLE $end
    $var wire 1 E D_OUT_0 $end
    $var wire 1 a D_OUT_1 $end
    $var wire 1 b D_IN_0 $end
    $var wire 1 c D_IN_1 $end
    $var wire 1 d INPUT_CLK $end
    $var wire 1 e LATCH_INPUT_VALUE $end
    $var wire 1 I r0 $end
    $var wire 1 J r1 $end
   $upscope $end
   $scope module io1 $end
    $var wire 6 [ PIN_TYPE [5:0] $end
    $var wire 1 \ PULLUP [0:0] $end
    $var wire 1 \ NEG_TRIGGER [0:0] $end
    $var wire 72 ] IO_STANDARD [71:0] $end
    $var wire 1 X PACKAGE_PIN $end
    $var wire 1 X PACKAGE_PIN_OUT $end
    $var wire 1 V OUTPUT_CLK $end
    $var wire 1 ` CLOCK_ENABLE $end
    $var wire 1 ` OUTPUT_ENABLE $end
    $var wire 1 F D_OUT_0 $end
    $var wire 1 f D_OUT_1 $end
    $var wire 1 g D_IN_0 $end
    $var wire 1 h D_IN_1 $end
    $var wire 1 i INPUT_CLK $end
    $var wire 1 j LATCH_INPUT_VALUE $end
    $var wire 1 K r0 $end
    $var wire 1 L r1 $end
   $upscope $end
   $scope module io2 $end
    $var wire 6 [ PIN_TYPE [5:0] $end
    $var wire 1 \ PULLUP [0:0] $end
    $var wire 1 \ NEG_TRIGGER [0:0] $end
    $var wire 72 ] IO_STANDARD [71:0] $end
    $var wire 1 Y PACKAGE_PIN $end
    $var wire 1 Y PACKAGE_PIN_OUT $end
    $var wire 1 V OUTPUT_CLK $end
    $var wire 1 ` CLOCK_ENABLE $end
    $var wire 1 ` OUTPUT_ENABLE $end
    $var wire 1 G D_OUT_0 $end
    $var wire 1 k D_OUT_1 $end
    $var wire 1 l D_IN_0 $end
    $var wire 1 m D_IN_1 $end
    $var wire 1 n INPUT_CLK $end
    $var wire 1 o LATCH_INPUT_VALUE $end
    $var wire 1 M r0 $end
    $var wire 1 N r1 $end
   $upscope $end
   $scope module io3 $end
    $var wire 6 [ PIN_TYPE [5:0] $end
    $var wire 1 \ PULLUP [0:0] $end
    $var wire 1 \ NEG_TRIGGER [0:0] $end
    $var wire 72 ] IO_STANDARD [71:0] $end
    $var wire 1 Z PACKAGE_PIN $end
    $var wire 1 Z PACKAGE_PIN_OUT $end
    $var wire 1 V OUTPUT_CLK $end
    $var wire 1 ` CLOCK_ENABLE $end
    $var wire 1 ` OUTPUT_ENABLE $end
    $var wire 1 H D_OUT_0 $end
    $var wire 1 p D_OUT_1 $end
    $var wire 1 q D_IN_0 $end
    $var wire 1 r D_IN_1 $end
    $var wire 1 s INPUT_CLK $end
    $var wire 1 t LATCH_INPUT_VALUE $end
    $var wire 1 O r0 $end
    $var wire 1 P r1 $end
   $upscope $end
   $scope module pllInst $end
    $var wire 48 u FEEDBACK_PATH [47:0] $end
    $var wire 4 w DIVR [3:0] $end
    $var wire 7 x DIVF [6:0] $end
    $var wire 3 y DIVQ [2:0] $end
    $var wire 3 z FILTER_RANGE [2:0] $end
    $var wire 1 V PACKAGEPIN $end
    $var wire 1 V PLLOUTCORE $end
    $var wire 1 V PLLOUTGLOBAL $end
    $var wire 1 # LOCK $end
    $var wire 1 ` RESETB $end
    $var wire 1 { BYPASS $end
    $var wire 1 # lock_reg $end
   $upscope $end
   $scope module sR $end
    $var wire 3 ; stepIndex [2:0] $end
    $var wire 1 A pushBase $end
    $var wire 1 B pushPeak $end
    $var wire 1 C pullBase $end
    $var wire 1 D pullPeak $end
   $upscope $end
  $upscope $end
 $upscope $end
$enddefinitions $end


#0
0#
b00000000000000000000000000000000 $
b00000000000000000000000000000000 %
b00000000000000000000000000000000 &
b00000000000000000000000000000000 '
b000 (
0)
0*
b0000000000000000000000000000000000000000 +
b000000 -
b000 .
b000 /
b000 0
01
02
13
b00000000000000000000000000000000 4
b00000000000000000000000000000000 5
b00000000000000000000000000000000 6
b11111111111111111111111111111111 7
b00000000000000000000000000000000 8
b00000000000000000000000000000000 9
b0000000 :
b000 ;
b00000000000000000000000000000000 <
0=
b00000000000000000000000000000000 >
0?
0@
1A
0B
0C
0D
0E
0F
0G
0H
0I
0J
0K
0L
0M
0N
0O
0P
0Q
0R
1S
0T
0U
1V
0W
0X
0Y
0Z
b011000 [
0\
b010100110100001001011111010011000101011001000011010011010100111101010011 ]
1`
0a
0b
0c
0d
0e
0f
0g
0h
0i
0j
0k
0l
0m
0n
0o
0p
0q
0r
0s
0t
b010100110100100101001101010100000100110001000101 u
b0000 w
b0000111 x
b011 y
b001 z
0{
#12500
0V
#25000
1#
b00000000000000000000000000000001 $
b001 0
1V
#37500
0V
#50000
b00000000000000000000000000000010 $
b011 0
03
b00000000000000000000000000000010 9
1V
#62500
0V
#75000
b00000000000000000000000000000011 $
b111 0
1V
#87500
0V
#100000
b00000000000000000000000000000100 $
1V
#112500
0V
#125000
b00000000000000000000000000000101 $
1V
#137500
0V
#150000
b00000000000000000000000000000110 $
1V
#162500
0V
#175000
b00000000000000000000000000000111 $
1V
#187500
0V
#200000
b00000000000000000000000000001000 $
1V
#212500
0V
#225000
b00000000000000000000000000001001 $
1V
#237500
0V
#250000
b00000000000000000000000000001010 $
1V
#262500
0V
#275000
b00000000000000000000000000001011 $
1V
#287500
0V
#300000
b00000000000000000000000000001100 $
1V
#312500
0V
#325000
b00000000000000000000000000001101 $
1V
#337500
0V
#350000
b00000000000000000000000000001110 $
1V
#362500
0V
#375000
b00000000000000000000000000001111 $
1V
#387500
0V
#400000
b00000000000000000000000000010000 $
1V
#412500
0V
#425000
b00000000000000000000000000010001 $
1V
#437500
0V
#450000
b00000000000000000000000000010010 $
1V
#462500
0V
#475000
b00000000000000000000000000010011 $
1V
#487500
0V
#500000
b00000000000000000000000000010100 $
1V
#512500
0V
#525000
b00000000000000000000000000010101 $
1V
#537500
0V
#550000
b00000000000000000000000000010110 $
1V
#562500
0V
#575000
b00000000000000000000000000010111 $
1V
#587500
0V
#600000
b00000000000000000000000000011000 $
1V
#612500
0V
#625000
b00000000000000000000000000011001 $
1V
#637500
0V
#650000
b00000000000000000000000000011010 $
1V
#662500
0V
#675000
b00000000000000000000000000011011 $
1V
#687500
0V
#700000
b00000000000000000000000000011100 $
1V
#712500
0V
#725000
b00000000000000000000000000011101 $
1V
#737500
0V
#750000
b00000000000000000000000000011110 $
1V
#762500
0V
#775000
b00000000000000000000000000011111 $
1V
#787500
0V
#800000
b00000000000000000000000000100000 $
1V
#812500
0V
#825000
b00000000000000000000000000100001 $
1V
#837500
0V
#850000
b00000000000000000000000000100010 $
1V
#862500
0V
#875000
b00000000000000000000000000100011 $
1V
#887500
0V
#900000
b00000000000000000000000000100100 $
1V
#912500
0V
#925000
b00000000000000000000000000100101 $
1V
#937500
0V
#950000
b00000000000000000000000000100110 $
1V
#962500
0V
#975000
b00000000000000000000000000100111 $
1V
#987500
0V
#1000000
b00000000000000000000000000101000 $
1V
#1012500
0V
#1025000
b00000000000000000000000000101001 $
1V
#1037500
0V
#1050000
b00000000000000000000000000101010 $
1V
#1062500
0V
#1075000
b00000000000000000000000000101011 $
1V
#1087500
0V
#1100000
b00000000000000000000000000101100 $
1V
#1112500
0V
#1125000
b00000000000000000000000000101101 $
1V
#1137500
0V
#1150000
b00000000000000000000000000101110 $
1V
#1162500
0V
#1175000
b00000000000000000000000000101111 $
1V
#1187500
0V
#1200000
b00000000000000000000000000110000 $
1V
#1212500
0V
#1225000
b00000000000000000000000000110001 $
1V
#1237500
0V
#31400000
b00000000000000000000010011101000 $
b1000000000000000000000000000000000000001 +
b101000 -
b111 /
b011 0
b00100000000000000000000000000000 5
b00100000000000000000000000000000 <
1R
1V
#31412500
0V
#31425000
b00000000000000000000010011101001 $
b000000 -
b111 0
b00000000000000000000000000000001 4
1@
1V
#31437500
0V
#31450000
b00000000000000000000010011101010 $
b00000000000000000000000000000011 9
b00100000000000000000000000000000 >
1?
1V
#31462500
0V
#31475000
b00000000000000000000010011101011 $
b01000000000000000000000000000000 >
1E
1V
#31487500
0V
#31500000
b00000000000000000000010011101100 $
b001 ;
b01100000000000000000000000000000 >
0A
1B
1I
1V
1W
#31512500
0V
0W
#31525000
b00000000000000000000010011101101 $
b00000000000000000000000000010011 9
b010 ;
b10000000000000000000000000000000 >
1A
0B
0E
1F
1V
1W
#31537500
0V
0W
#31550000
b00000000000000000000010011101110 $
b00000000000000000000000000100011 9
b011 ;
b10100000000000000000000000000000 >
0A
1C
1E
0F
0I
1K
1V
1X
#31562500
0V
0X
#31575000
b00000000000000000000010011101111 $
b00000000000000000000000000110011 9
b11000000000000000000000000000000 >
0E
1G
1I
0K
1V
1W
#31587500
0V
0W
#31600000
b00000000000000000000010011110000 $
b000 ;
b11100000000000000000000000000000 >
1A
0C
0I
1M
1V
1Y
#31612500
0V
0Y
#31625000
b00000000000000000000010011110001 $
b00000000000000000000000000000011 9
b001 ;
b00000000000000000000000000000000 >
0A
1B
1E
0G
1V
1Y
#31637500
0V
0Y
#31650000
b00000000000000000000010011110010 $
b00000000000000000000000000010011 9
b000 ;
b00100000000000000000000000000000 >
1A
0B
0E
1F
1I
0M
1V
1W
#31662500
0V
0W
#31675000
b00000000000000000000010011110011 $
b00000000000000000000000000000011 9
b01000000000000000000000000000000 >
1E
0F
0I
1K
1V
1X
#31687500
0V
0X
#31700000
b00000000000000000000010011110100 $
b001 ;
b01100000000000000000000000000000 >
0A
1B
1I
0K
1V
1W
#31712500
0V
0W
#31725000
b00000000000000000000010011110101 $
b00000000000000000000000000010011 9
b010 ;
b10000000000000000000000000000000 >
1A
0B
0E
1F
1V
1W
#31737500
0V
0W
#31750000
b00000000000000000000010011110110 $
b00000000000000000000000000100011 9
b011 ;
b10100000000000000000000000000000 >
0A
1C
1E
0F
0I
1K
1V
1X
#31762500
0V
0X
#31775000
b00000000000000000000010011110111 $
b00000000000000000000000000110011 9
b11000000000000000000000000000000 >
0E
1G
1I
0K
1V
1W
#31787500
0V
0W
#31800000
b00000000000000000000010011111000 $
b000 ;
b11100000000000000000000000000000 >
1A
0C
0I
1M
1V
1Y
#31812500
0V
0Y
#31825000
b00000000000000000000010011111001 $
b00000000000000000000000000000011 9
b001 ;
b00000000000000000000000000000000 >
0A
1B
1E
0G
1V
1Y
#31837500
0V
0Y
#31850000
b00000000000000000000010011111010 $
b00000000000000000000000000010011 9
b000 ;
b00100000000000000000000000000000 >
1A
0B
0E
1F
1I
0M
1V
1W
#31862500
0V
0W
#31875000
b00000000000000000000010011111011 $
b00000000000000000000000000000011 9
b01000000000000000000000000000000 >
1E
0F
0I
1K
1V
1X
#31887500
0V
0X
#31900000
b00000000000000000000010011111100 $
b001 ;
b01100000000000000000000000000000 >
0A
1B
1I
0K
1V
1W
#31912500
0V
0W
#31925000
b00000000000000000000010011111101 $
b00000000000000000000000000010011 9
b010 ;
b10000000000000000000000000000000 >
1A
0B
0E
1F
1V
1W
#31937500
0V
0W
#31950000
b00000000000000000000010011111110 $
b00000000000000000000000000100011 9
b011 ;
b10100000000000000000000000000000 >
0A
1C
1E
0F
0I
1K
1V
1X
#31962500
0V
0X
#31975000
b00000000000000000000010011111111 $
b00000000000000000000000000110011 9
b11000000000000000000000000000000 >
0E
1G
1I
0K
1V
1W
#31987500
0V
0W
#32000000
b00000000000000000000010100000000 $
b000 ;
b11100000000000000000000000000000 >
1A
0C
0I
1M
1V
1Y
#32012500
0V
0Y
#32025000
b00000000000000000000010100000001 $
b00000000000000000000000000000011 9
b001 ;
b00000000000000000000000000000000 >
0A
1B
1E
0G
1V
1Y
#32037500
0V
0Y
#32050000
b00000000000000000000010100000010 $
b00000000000000000000000000010011 9
b000 ;
b00100000000000000000000000000000 >
1A
0B
0E
1F
1I
0M
1V
1W
#32062500
0V
0W
#32075000
b00000000000000000000010100000011 $
b00000000000000000000000000000011 9
b01000000000000000000000000000000 >
1E
0F
0I
1K
1V
1X
#32087500
0V
0X
#32100000
b00000000000000000000010100000100 $
b001 ;
b01100000000000000000000000000000 >
0A
1B
1I
0K
1V
1W
#32112500
0V
0W
#32125000
b00000000000000000000010100000101 $
b00000000000000000000000000010011 9
b010 ;
b10000000000000000000000000000000 >
1A
0B
0E
1F
1V
1W
#32137500
0V
0W
#32150000
b00000000000000000000010100000110 $
b00000000000000000000000000100011 9
b011 ;
b10100000000000000000000000000000 >
0A
1C
1E
0F
0I
1K
1V
1X
#32162500
0V
0X
#32175000
b00000000000000000000010100000111 $
b00000000000000000000000000110011 9
b11000000000000000000000000000000 >
0E
1G
1I
0K
1V
1W
#32187500
0V
0W
#32200000
b00000000000000000000010100001000 $
b000 ;
b11100000000000000000000000000000 >
1A
0C
0I
1M
1V
1Y
#32212500
0V
0Y
#32225000
b00000000000000000000010100001001 $
b00000000000000000000000000000011 9
b001 ;
b00000000000000000000000000000000 >
0A
1B
1E
0G
1V
1Y
#32237500
0V
0Y
#32250000
b00000000000000000000010100001010 $
b00000000000000000000000000010011 9
b000 ;
b00100000000000000000000000000000 >
1A
0B
0E
1F
1I
0M
1V
1W
#32262500
0V
0W
#32275000
b00000000000000000000010100001011 $
b00000000000000000000000000000011 9
b01000000000000000000000000000000 >
1E
0F
0I
1K
1V
1X
#32287500
0V
0X
#32300000
b00000000000000000000010100001100 $
b001 ;
b01100000000000000000000000000000 >
0A
1B
1I
0K
1V
1W
#32312500
0V
0W
#32325000
b00000000000000000000010100001101 $
b00000000000000000000000000010011 9
b010 ;
b10000000000000000000000000000000 >
1A
0B
0E
1F
1V
1W
#32337500
0V
0W
#32350000
b00000000000000000000010100001110 $
b00000000000000000000000000100011 9
b011 ;
b10100000000000000000000000000000 >
0A
1C
1E
0F
0I
1K
1V
1X
#32362500
0V
0X
#32375000
b00000000000000000000010100001111 $
b00000000000000000000000000110011 9
b11000000000000000000000000000000 >
0E
1G
1I
0K
1V
1W
#32387500
0V
0W
#32400000
b00000000000000000000010100010000 $
b000 ;
b11100000000000000000000000000000 >
1A
0C
0I
1M
1V
1Y
#32412500
0V
0Y
#32425000
b00000000000000000000010100010001 $
b00000000000000000000000000000011 9
b001 ;
b00000000000000000000000000000000 >
0A
1B
1E
0G
1V
1Y
#32437500
0V
0Y
#32450000
b00000000000000000000010100010010 $
b00000000000000000000000000010011 9
b000 ;
b00100000000000000000000000000000 >
1A
0B
0E
1F
1I
0M
1V
1W
#32462500
0V
0W
#32475000
b00000000000000000000010100010011 $
b00000000000000000000000000000011 9
b01000000000000000000000000000000 >
1E
0F
0I
1K
1V
1X
#32487500
0V
0X
#32500000
b00000000000000000000010100010100 $
b001 ;
b01100000000000000000000000000000 >
0A
1B
1I
0K
1V
1W
#32512500
0V
0W
#32525000
b00000000000000000000010100010101 $
b00000000000000000000000000010011 9
b010 ;
b10000000000000000000000000000000 >
1A
0B
0E
1F
1V
1W
#32537500
0V
0W
#32550000
b00000000000000000000010100010110 $
b00000000000000000000000000100011 9
b011 ;
b10100000000000000000000000000000 >
0A
1C
1E
0F
0I
1K
1V
1X
#32562500
0V
0X
#32575000
b00000000000000000000010100010111 $
b00000000000000000000000000110011 9
b11000000000000000000000000000000 >
0E
1G
1I
0K
1V
1W
#32587500
0V
0W
#32600000
b00000000000000000000010100011000 $
b000 ;
b11100000000000000000000000000000 >
1A
0C
0I
1M
1V
1Y
#32612500
0V
0Y
#32625000
b00000000000000000000010100011001 $
b00000000000000000000000000000011 9
b001 ;
b00000000000000000000000000000000 >
0A
1B
1E
0G
1V
1Y
#32637500
0V
0Y
#32650000
b00000000000000000000010100011010 $
b00000000000000000000000000010011 9
b000 ;
b00100000000000000000000000000000 >
1A
0B
0E
1F
1I
0M
1V
1W
#32662500
0V
0W
#32675000
b00000000000000000000010100011011 $
b00000000000000000000000000000011 9
b01000000000000000000000000000000 >
1E
0F
0I
1K
1V
1X
#32687500
0V
0X
#32700000
b00000000000000000000010100011100 $
b001 ;
b01100000000000000000000000000000 >
0A
1B
1I
0K
1V
1W
#32712500
0V
0W
#32725000
b00000000000000000000010100011101 $
b00000000000000000000000000010011 9
b010 ;
b10000000000000000000000000000000 >
1A
0B
0E
1F
1V
1W
#32737500
0V
0W
#32750000
b00000000000000000000010100011110 $
b00000000000000000000000000100011 9
b011 ;
b10100000000000000000000000000000 >
0A
1C
1E
0F
0I
1K
1V
1X
#32762500
0V
0X
#32775000
b00000000000000000000010100011111 $
b00000000000000000000000000110011 9
b11000000000000000000000000000000 >
0E
1G
1I
0K
1V
1W
#32787500
0V
0W
#32800000
b00000000000000000000010100100000 $
b000 ;
b11100000000000000000000000000000 >
1A
0C
0I
1M
1V
1Y
#32812500
0V
0Y
#32825000
b00000000000000000000010100100001 $
b00000000000000000000000000000011 9
b001 ;
b00000000000000000000000000000000 >
0A
1B
1E
0G
1V
1Y
#32837500
0V
0Y
#32850000
b00000000000000000000010100100010 $
b00000000000000000000000000010011 9
b000 ;
b00100000000000000000000000000000 >
1A
0B
0E
1F
1I
0M
1V
1W
#32862500
0V
0W
#32875000
b00000000000000000000010100100011 $
b00000000000000000000000000000011 9
b01000000000000000000000000000000 >
1E
0F
0I
1K
1V
1X
#32887500
0V
0X
#32900000
b00000000000000000000010100100100 $
b001 ;
b01100000000000000000000000000000 >
0A
1B
1I
0K
1V
1W
#32912500
0V
0W
#32925000
b00000000000000000000010100100101 $
b00000000000000000000000000010011 9
b010 ;
b10000000000000000000000000000000 >
1A
0B
0E
1F
1V
1W
#32937500
0V
0W
#32950000
b00000000000000000000010100100110 $
b00000000000000000000000000100011 9
b011 ;
b10100000000000000000000000000000 >
0A
1C
1E
0F
0I
1K
1V
1X
#32962500
0V
0X
#32975000
b00000000000000000000010100100111 $
b00000000000000000000000000110011 9
b11000000000000000000000000000000 >
0E
1G
1I
0K
1V
1W
#32987500
0V
0W
#33000000
b00000000000000000000010100101000 $
b000 ;
b11100000000000000000000000000000 >
1A
0C
0I
1M
1V
1Y
#33012500
0V
0Y
#33025000
b00000000000000000000010100101001 $
b00000000000000000000000000000011 9
b001 ;
b00000000000000000000000000000000 >
0A
1B
1E
0G
1V
1Y
#33037500
0V
0Y
#33050000
b00000000000000000000010100101010 $
b00000000000000000000000000010011 9
b000 ;
b00100000000000000000000000000000 >
1A
0B
0E
1F
1I
0M
1V
1W
#33062500
0V
0W
#33075000
b00000000000000000000010100101011 $
b00000000000000000000000000000011 9
b01000000000000000000000000000000 >
1E
0F
0I
1K
1V
1X
#33087500
0V
0X
#33100000
b00000000000000000000010100101100 $
b001 ;
b01100000000000000000000000000000 >
0A
1B
1I
0K
1V
1W
#33112500
0V
0W
#33125000
b00000000000000000000010100101101 $
b00000000000000000000000000010011 9
b010 ;
b10000000000000000000000000000000 >
1A
0B
0E
1F
1V
1W
#33137500
0V
0W
#33150000
b00000000000000000000010100101110 $
b00000000000000000000000000100011 9
b011 ;
b10100000000000000000000000000000 >
0A
1C
1E
0F
0I
1K
1V
1X
#33162500
0V
0X
#33175000
b00000000000000000000010100101111 $
b00000000000000000000000000110011 9
b11000000000000000000000000000000 >
0E
1G
1I
0K
1V
1W
#33187500
0V
0W
#33200000
b00000000000000000000010100110000 $
b000 ;
b11100000000000000000000000000000 >
1A
0C
0I
1M
1V
1Y
#33212500
0V
0Y
#33225000
b00000000000000000000010100110001 $
b00000000000000000000000000000011 9
b001 ;
b00000000000000000000000000000000 >
0A
1B
1E
0G
1V
1Y
#33237500
0V
0Y
#33250000
b00000000000000000000010100110010 $
b00000000000000000000000000010011 9
b000 ;
b00100000000000000000000000000000 >
1A
0B
0E
1F
1I
0M
1V
1W
#33262500
0V
0W
#33275000
b00000000000000000000010100110011 $
b00000000000000000000000000000011 9
b01000000000000000000000000000000 >
1E
0F
0I
1K
1V
1X
#33287500
0V
0X
#33300000
b00000000000000000000010100110100 $
b001 ;
b01100000000000000000000000000000 >
0A
1B
1I
0K
1V
1W
#33312500
0V
0W
#33325000
b00000000000000000000010100110101 $
b00000000000000000000000000010011 9
b010 ;
b10000000000000000000000000000000 >
1A
0B
0E
1F
1V
1W
#33337500
0V
0W
#33350000
b00000000000000000000010100110110 $
b00000000000000000000000000100011 9
b011 ;
b10100000000000000000000000000000 >
0A
1C
1E
0F
0I
1K
1V
1X
#33362500
0V
0X
#33375000
b00000000000000000000010100110111 $
b00000000000000000000000000110011 9
b11000000000000000000000000000000 >
0E
1G
1I
0K
1V
1W
#33387500
0V
0W
#33400000
b00000000000000000000010100111000 $
b000 ;
b11100000000000000000000000000000 >
1A
0C
0I
1M
1V
1Y
#33412500
0V
0Y
#33425000
b00000000000000000000010100111001 $
b00000000000000000000000000000011 9
b001 ;
b00000000000000000000000000000000 >
0A
1B
1E
0G
1V
1Y
#33437500
0V
0Y
#33450000
b00000000000000000000010100111010 $
b00000000000000000000000000010011 9
b000 ;
b00100000000000000000000000000000 >
1A
0B
0E
1F
1I
0M
1V
1W
#33462500
0V
0W
#33475000
b00000000000000000000010100111011 $
b00000000000000000000000000000011 9
b01000000000000000000000000000000 >
1E
0F
0I
1K
1V
1X
#33487500
0V
0X
#33500000
b00000000000000000000010100111100 $
b001 ;
b01100000000000000000000000000000 >
0A
1B
1I
0K
1V
1W
#33512500
0V
0W
#33525000
b00000000000000000000010100111101 $
b00000000000000000000000000010011 9
b010 ;
b10000000000000000000000000000000 >
1A
0B
0E
1F
1V
1W
#33537500
0V
0W
#33550000
b00000000000000000000010100111110 $
b00000000000000000000000000100011 9
b011 ;
b10100000000000000000000000000000 >
0A
1C
1E
0F
0I
1K
1V
1X
#33562500
0V
0X
#33575000
b00000000000000000000010100111111 $
b00000000000000000000000000110011 9
b11000000000000000000000000000000 >
0E
1G
1I
0K
1V
1W
#33587500
0V
0W
#33600000
b00000000000000000000010101000000 $
b000 ;
b11100000000000000000000000000000 >
1A
0C
0I
1M
1V
1Y
#33612500
0V
0Y
#33625000
b00000000000000000000010101000001 $
b00000000000000000000000000000011 9
b001 ;
b00000000000000000000000000000000 >
0A
1B
1E
0G
1V
1Y
#33637500
0V
0Y
#33650000
b00000000000000000000010101000010 $
b00000000000000000000000000010011 9
b000 ;
b00100000000000000000000000000000 >
1A
0B
0E
1F
1I
0M
1V
1W
#33662500
0V
0W
#33675000
b00000000000000000000010101000011 $
b00000000000000000000000000000011 9
b01000000000000000000000000000000 >
1E
0F
0I
1K
1V
1X
#33687500
0V
0X
#33700000
b00000000000000000000010101000100 $
b001 ;
b01100000000000000000000000000000 >
0A
1B
1I
0K
1V
1W
#33712500
0V
0W
#33725000
b00000000000000000000010101000101 $
b00000000000000000000000000010011 9
b010 ;
b10000000000000000000000000000000 >
1A
0B
0E
1F
1V
1W
#33737500
0V
0W
#33750000
b00000000000000000000010101000110 $
b00000000000000000000000000100011 9
b011 ;
b10100000000000000000000000000000 >
0A
1C
1E
0F
0I
1K
1V
1X
#33762500
0V
0X
#33775000
b00000000000000000000010101000111 $
b00000000000000000000000000110011 9
b11000000000000000000000000000000 >
0E
1G
1I
0K
1V
1W
#33787500
0V
0W
#33800000
b00000000000000000000010101001000 $
b000 ;
b11100000000000000000000000000000 >
1A
0C
0I
1M
1V
1Y
#33812500
0V
0Y
#33825000
b00000000000000000000010101001001 $
b00000000000000000000000000000011 9
b001 ;
b00000000000000000000000000000000 >
0A
1B
1E
0G
1V
1Y
#33837500
0V
0Y
#33850000
b00000000000000000000010101001010 $
b00000000000000000000000000010011 9
b000 ;
b00100000000000000000000000000000 >
1A
0B
0E
1F
1I
0M
1V
1W
#33862500
0V
0W
#33875000
b00000000000000000000010101001011 $
b00000000000000000000000000000011 9
b01000000000000000000000000000000 >
1E
0F
0I
1K
1V
1X
#33887500
0V
0X
#33900000
b00000000000000000000010101001100 $
b001 ;
b01100000000000000000000000000000 >
0A
1B
1I
0K
1V
1W
#33912500
0V
0W
#33925000
b00000000000000000000010101001101 $
b00000000000000000000000000010011 9
b010 ;
b10000000000000000000000000000000 >
1A
0B
0E
1F
1V
1W
#33937500
0V
0W
#33950000
b00000000000000000000010101001110 $
b00000000000000000000000000100011 9
b011 ;
b10100000000000000000000000000000 >
0A
1C
1E
0F
0I
1K
1V
1X
#33962500
0V
0X
#33975000
b00000000000000000000010101001111 $
b00000000000000000000000000110011 9
b11000000000000000000000000000000 >
0E
1G
1I
0K
1V
1W
#33987500
0V
0W
#34000000
b00000000000000000000010101010000 $
b000 ;
b11100000000000000000000000000000 >
1A
0C
0I
1M
1V
1Y
#34012500
0V
0Y
#34025000
b00000000000000000000010101010001 $
b00000000000000000000000000000011 9
b001 ;
b00000000000000000000000000000000 >
0A
1B
1E
0G
1V
1Y
#34037500
0V
0Y
#34050000
b00000000000000000000010101010010 $
b00000000000000000000000000010011 9
b000 ;
b00100000000000000000000000000000 >
1A
0B
0E
1F
1I
0M
1V
1W
#34062500
0V
0W
#34075000
b00000000000000000000010101010011 $
b00000000000000000000000000000011 9
b01000000000000000000000000000000 >
1E
0F
0I
1K
1V
1X
#34087500
0V
0X
#34100000
b00000000000000000000010101010100 $
b001 ;
b01100000000000000000000000000000 >
0A
1B
1I
0K
1V
1W
#34112500
0V
0W
#34125000
b00000000000000000000010101010101 $
b00000000000000000000000000010011 9
b010 ;
b10000000000000000000000000000000 >
1A
0B
0E
1F
1V
1W
#34137500
0V
0W
#34150000
b00000000000000000000010101010110 $
b00000000000000000000000000100011 9
b011 ;
b10100000000000000000000000000000 >
0A
1C
1E
0F
0I
1K
1V
1X
#34162500
0V
0X
#34175000
b00000000000000000000010101010111 $
b00000000000000000000000000110011 9
b11000000000000000000000000000000 >
0E
1G
1I
0K
1V
1W
#34187500
0V
0W
#34200000
b00000000000000000000010101011000 $
b000 ;
b11100000000000000000000000000000 >
1A
0C
0I
1M
1V
1Y
#34212500
0V
0Y
#34225000
b00000000000000000000010101011001 $
b00000000000000000000000000000011 9
b001 ;
b00000000000000000000000000000000 >
0A
1B
1E
0G
1V
1Y
#34237500
0V
0Y
#34250000
b00000000000000000000010101011010 $
b00000000000000000000000000010011 9
b000 ;
b00100000000000000000000000000000 >
1A
0B
0E
1F
1I
0M
1V
1W
#34262500
0V
0W
#34275000
b00000000000000000000010101011011 $
b00000000000000000000000000000011 9
b01000000000000000000000000000000 >
1E
0F
0I
1K
1V
1X
#34287500
0V
0X
#34300000
b00000000000000000000010101011100 $
b001 ;
b01100000000000000000000000000000 >
0A
1B
1I
0K
1V
1W
#34312500
0V
0W
#34325000
b00000000000000000000010101011101 $
b00000000000000000000000000010011 9
b010 ;
b10000000000000000000000000000000 >
1A
0B
0E
1F
1V
1W
#34337500
0V
0W
#34350000
b00000000000000000000010101011110 $
b00000000000000000000000000100011 9
b011 ;
b10100000000000000000000000000000 >
0A
1C
1E
0F
0I
1K
1V
1X
#34362500
0V
0X
#34375000
b00000000000000000000010101011111 $
b00000000000000000000000000110011 9
b11000000000000000000000000000000 >
0E
1G
1I
0K
1V
1W
#34387500
0V
0W
#34400000
b00000000000000000000010101100000 $
b000 ;
b11100000000000000000000000000000 >
1A
0C
0I
1M
1V
1Y
#34412500
0V
0Y
