FPGA/waveform.vcd
$version Generated by VerilatedVcd $end
$timescale 1ps $end
 $scope module TOP $end
  $var wire 1 %! fpgaClk $end
  $var wire 1 &! fpgaMOSI $end
  $var wire 1 '! fpgaNCS $end
  $var wire 1 (! fpgaMISO $end
  $var wire 1 )! gnssPPS $end
  $var wire 1 *! clk40MHz $end
  $var wire 1 +! driveNEN $end
  $var wire 1 ,! rfPushBase $end
  $var wire 1 -! rfPushPeak $end
  $var wire 1 .! rfPullBase $end
  $var wire 1 /! rfPullPeak $end
  $scope module Top $end
   $var wire 1 %! fpgaClk $end
   $var wire 1 &! fpgaMOSI $end
   $var wire 1 '! fpgaNCS $end
   $var wire 1 (! fpgaMISO $end
   $var wire 1 )! gnssPPS $end
   $var wire 1 *! clk40MHz $end
   $var wire 1 +! driveNEN $end
   $var wire 1 ,! rfPushBase $end
   $var wire 1 -! rfPushPeak $end
   $var wire 1 .! rfPullBase $end
   $var wire 1 /! rfPullPeak $end
   $var wire 1 *! clk90_raw $end
   $var wire 1 *! clk $end
   $var wire 1 # pllLocked $end
   $var wire 40 $ spiShift [39:0] $end
   $var wire 6 & spiBits [5:0] $end
   $var wire 3 ' sclkS [2:0] $end
   $var wire 3 ( mosiS [2:0] $end
   $var wire 3 ) ncsS [2:0] $end
   $var wire 1 * sclkR $end
   $var wire 1 + sclkF $end
   $var wire 1 , ncsA $end
   $var wire 7 - activeAddr [6:0] $end
   $var wire 40 . latchedShift [39:0] $end
   $var wire 1 0 spiWE $end
   $var wire 32 1 regControl [31:0] $end
   $var wire 16 2 ramB_Lo [15:0] $end
   $var wire 16 3 ramB_Hi [15:0] $end
   $var wire 16 4 ramS_Lo [15:0] $end
   $var wire 16 5 ramS_Hi [15:0] $end
   $var wire 32 6 regPPSFall [31:0] $end
   $var wire 32 7 regPPSRise [31:0] $end
   $var wire 32 8 spiRdData [31:0] $end
   $var wire 32 9 spiRd_q [31:0] $end
   $var wire 32 : misoSR [31:0] $end
   $var wire 32 ; tw [31:0] $end
   $var wire 32 < tw2 [31:0] $end
   $var wire 4 = a[0] [3:0] $end
   $var wire 4 > a[1] [3:0] $end
   $var wire 4 ? a[2] [3:0] $end
   $var wire 4 @ a[3] [3:0] $end
   $var wire 4 A a[4] [3:0] $end
   $var wire 4 B a[5] [3:0] $end
   $var wire 4 C a[6] [3:0] $end
   $var wire 4 D a[7] [3:0] $end
   $var wire 1 E c[0] $end
   $var wire 1 F c[1] $end
   $var wire 1 G c[2] $end
   $var wire 1 H c[3] $end
   $var wire 1 I c[4] $end
   $var wire 1 J c[5] $end
   $var wire 1 K c[6] $end
   $var wire 1 L c[7] $end
   $var wire 4 M sa[0] [3:0] $end
   $var wire 4 N sa[1] [3:0] $end
   $var wire 4 O sa[2] [3:0] $end
   $var wire 4 P sa[3] [3:0] $end
   $var wire 4 Q sa[4] [3:0] $end
   $var wire 4 R sa[5] [3:0] $end
   $var wire 4 S sa[6] [3:0] $end
   $var wire 4 T sa[7] [3:0] $end
   $var wire 1 U sc[0] $end
   $var wire 1 V sc[1] $end
   $var wire 1 W sc[2] $end
   $var wire 1 X sc[3] $end
   $var wire 1 Y sc[4] $end
   $var wire 1 Z sc[5] $end
   $var wire 1 [ sc[6] $end
   $var wire 1 \ sc[7] $end
   $var wire 1 ] cB_q $end
   $var wire 6 ^ rc [5:0] $end
   $var wire 6 _ rcMid [5:0] $end
   $var wire 6 ` rcNext [5:0] $end
   $var wire 1 a drvB0 $end
   $var wire 1 b drvB1 $end
   $var wire 1 c drvP0 $end
   $var wire 1 d drvP1 $end
   $var wire 1 e drvL0 $end
   $var wire 1 f drvL1 $end
   $var wire 1 g drvK0 $end
   $var wire 1 h drvK1 $end
   $var wire 1 !! drvB1n $end
   $var wire 1 "! drvP1n $end
   $var wire 1 #! drvL1n $end
   $var wire 1 $! drvK1n $end
   $var wire 32 i ppsCounter [31:0] $end
   $var wire 3 j ppsS [2:0] $end
   $scope module ioMISO $end
    $var wire 6 0! PIN_TYPE [5:0] $end
    $var wire 1 1! PULLUP [0:0] $end
    $var wire 1 1! NEG_TRIGGER [0:0] $end
    $var wire 72 2! IO_STANDARD [71:0] $end
    $var wire 1 (! PACKAGE_PIN $end
    $var wire 1 (! PACKAGE_PIN_OUT $end
    $var wire 1 *! OUTPUT_CLK $end
    $var wire 1 5! CLOCK_ENABLE $end
    $var wire 1 , OUTPUT_ENABLE $end
    $var wire 1 k D_OUT_0 $end
    $var wire 1 6! D_OUT_1 $end
    $var wire 1 7! D_IN_0 $end
    $var wire 1 8! D_IN_1 $end
    $var wire 1 9! INPUT_CLK $end
    $var wire 1 :! LATCH_INPUT_VALUE $end
    $var wire 1 l r0 $end
    $var wire 1 m r1 $end
   $upscope $end
   $scope module ioPullB $end
    $var wire 6 ;! PIN_TYPE [5:0] $end
    $var wire 1 1! PULLUP [0:0] $end
    $var wire 1 1! NEG_TRIGGER [0:0] $end
    $var wire 72 2! IO_STANDARD [71:0] $end
    $var wire 1 .! PACKAGE_PIN $end
    $var wire 1 .! PACKAGE_PIN_OUT $end
    $var wire 1 *! OUTPUT_CLK $end
    $var wire 1 <! CLOCK_ENABLE $end
    $var wire 1 =! OUTPUT_ENABLE $end
    $var wire 1 e D_OUT_0 $end
    $var wire 1 #! D_OUT_1 $end
    $var wire 1 >! D_IN_0 $end
    $var wire 1 ?! D_IN_1 $end
    $var wire 1 @! INPUT_CLK $end
    $var wire 1 A! LATCH_INPUT_VALUE $end
    $var wire 1 n r0 $end
    $var wire 1 o r1 $end
   $upscope $end
   $scope module ioPullP $end
    $var wire 6 ;! PIN_TYPE [5:0] $end
    $var wire 1 1! PULLUP [0:0] $end
    $var wire 1 1! NEG_TRIGGER [0:0] $end
    $var wire 72 2! IO_STANDARD [71:0] $end
    $var wire 1 /! PACKAGE_PIN $end
    $var wire 1 /! PACKAGE_PIN_OUT $end
    $var wire 1 *! OUTPUT_CLK $end
    $var wire 1 B! CLOCK_ENABLE $end
    $var wire 1 =! OUTPUT_ENABLE $end
    $var wire 1 g D_OUT_0 $end
    $var wire 1 $! D_OUT_1 $end
    $var wire 1 C! D_IN_0 $end
    $var wire 1 D! D_IN_1 $end
    $var wire 1 E! INPUT_CLK $end
    $var wire 1 F! LATCH_INPUT_VALUE $end
    $var wire 1 p r0 $end
    $var wire 1 q r1 $end
   $upscope $end
   $scope module ioPushB $end
    $var wire 6 ;! PIN_TYPE [5:0] $end
    $var wire 1 1! PULLUP [0:0] $end
    $var wire 1 1! NEG_TRIGGER [0:0] $end
    $var wire 72 2! IO_STANDARD [71:0] $end
    $var wire 1 ,! PACKAGE_PIN $end
    $var wire 1 ,! PACKAGE_PIN_OUT $end
    $var wire 1 *! OUTPUT_CLK $end
    $var wire 1 G! CLOCK_ENABLE $end
    $var wire 1 =! OUTPUT_ENABLE $end
    $var wire 1 a D_OUT_0 $end
    $var wire 1 !! D_OUT_1 $end
    $var wire 1 H! D_IN_0 $end
    $var wire 1 I! D_IN_1 $end
    $var wire 1 J! INPUT_CLK $end
    $var wire 1 K! LATCH_INPUT_VALUE $end
    $var wire 1 r r0 $end
    $var wire 1 s r1 $end
   $upscope $end
   $scope module ioPushP $end
    $var wire 6 ;! PIN_TYPE [5:0] $end
    $var wire 1 1! PULLUP [0:0] $end
    $var wire 1 1! NEG_TRIGGER [0:0] $end
    $var wire 72 2! IO_STANDARD [71:0] $end
    $var wire 1 -! PACKAGE_PIN $end
    $var wire 1 -! PACKAGE_PIN_OUT $end
    $var wire 1 *! OUTPUT_CLK $end
    $var wire 1 L! CLOCK_ENABLE $end
    $var wire 1 =! OUTPUT_ENABLE $end
    $var wire 1 c D_OUT_0 $end
    $var wire 1 "! D_OUT_1 $end
    $var wire 1 M! D_IN_0 $end
    $var wire 1 N! D_IN_1 $end
    $var wire 1 O! INPUT_CLK $end
    $var wire 1 P! LATCH_INPUT_VALUE $end
    $var wire 1 t r0 $end
    $var wire 1 u r1 $end
   $upscope $end
   $scope module pllInst $end
    $var wire 48 Q! FEEDBACK_PATH [47:0] $end
    $var wire 4 S! DIVR [3:0] $end
    $var wire 7 T! DIVF [6:0] $end
    $var wire 3 U! DIVQ [2:0] $end
    $var wire 3 V! FILTER_RANGE [2:0] $end
    $var wire 1 *! PACKAGEPIN $end
    $var wire 1 *! PLLOUTCORE $end
    $var wire 1 *! PLLOUTGLOBAL $end
    $var wire 1 # LOCK $end
    $var wire 1 =! RESETB $end
    $var wire 1 W! BYPASS $end
    $var wire 1 # lock_reg $end
   $upscope $end
   $scope module regBankB_Hi $end
    $var wire 2 X! WRITE_MODE [1:0] $end
    $var wire 2 X! READ_MODE [1:0] $end
    $var wire 11 v WADDR [10:0] $end
    $var wire 16 w WDATA [15:0] $end
    $var wire 1 0 WE $end
    $var wire 1 =! WCLKE $end
    $var wire 1 *! WCLK $end
    $var wire 11 Y! RADDR [10:0] $end
    $var wire 16 3 RDATA [15:0] $end
    $var wire 1 =! RE $end
    $var wire 1 =! RCLKE $end
    $var wire 1 *! RCLK $end
   $upscope $end
   $scope module regBankB_Lo $end
    $var wire 2 X! WRITE_MODE [1:0] $end
    $var wire 2 X! READ_MODE [1:0] $end
    $var wire 11 v WADDR [10:0] $end
    $var wire 16 x WDATA [15:0] $end
    $var wire 1 0 WE $end
    $var wire 1 =! WCLKE $end
    $var wire 1 *! WCLK $end
    $var wire 11 Y! RADDR [10:0] $end
    $var wire 16 2 RDATA [15:0] $end
    $var wire 1 =! RE $end
    $var wire 1 =! RCLKE $end
    $var wire 1 *! RCLK $end
   $upscope $end
   $scope module regBankS_Hi $end
    $var wire 2 X! WRITE_MODE [1:0] $end
    $var wire 2 X! READ_MODE [1:0] $end
    $var wire 11 v WADDR [10:0] $end
    $var wire 16 w WDATA [15:0] $end
    $var wire 1 0 WE $end
    $var wire 1 =! WCLKE $end
    $var wire 1 *! WCLK $end
    $var wire 11 v RADDR [10:0] $end
    $var wire 16 5 RDATA [15:0] $end
    $var wire 1 =! RE $end
    $var wire 1 =! RCLKE $end
    $var wire 1 *! RCLK $end
   $upscope $end
   $scope module regBankS_Lo $end
    $var wire 2 X! WRITE_MODE [1:0] $end
    $var wire 2 X! READ_MODE [1:0] $end
    $var wire 11 v WADDR [10:0] $end
    $var wire 16 x WDATA [15:0] $end
    $var wire 1 0 WE $end
    $var wire 1 =! WCLKE $end
    $var wire 1 *! WCLK $end
    $var wire 11 v RADDR [10:0] $end
    $var wire 16 4 RDATA [15:0] $end
    $var wire 1 =! RE $end
    $var wire 1 =! RCLKE $end
    $var wire 1 *! RCLK $end
   $upscope $end
   $scope module unnamedblk1 $end
    $var wire 32 y i [31:0] $end
   $upscope $end
   $scope module unnamedblk2 $end
    $var wire 32 z s [31:0] $end
    $scope module unnamedblk3 $end
     $var wire 32 { i [31:0] $end
    $upscope $end
   $upscope $end
   $scope module unnamedblk4 $end
    $var wire 32 | i [31:0] $end
   $upscope $end
   $scope module unnamedblk5 $end
    $var wire 32 } s [31:0] $end
    $scope module unnamedblk6 $end
     $var wire 32 ~ i [31:0] $end
    $upscope $end
   $upscope $end
  $upscope $end
 $upscope $end
$enddefinitions $end


#0
0#
b0000000000000000000000000000000000000000 $
b000000 &
b000 '
b000 (
b000 )
0*
0+
1,
b0000000 -
b0000000000000000000000000000000000000000 .
00
b00000000000000000000000000000000 1
b0000000000000000 2
b0000000000000000 3
b0000000000000000 4
b0000000000000000 5
b00000000000000000000000000000000 6
b00000000000000000000000000000000 7
b00000000000000000000000000000000 8
b00000000000000000000000000000000 9
b00000000000000000000000000000000 :
b00000000000000000000000000000000 ;
b00000000000000000000000000000000 <
b0000 =
b0000 >
b0000 ?
b0000 @
b0000 A
b0000 B
b0000 C
b0000 D
0E
0F
0G
0H
0I
0J
0K
0L
b0000 M
b0000 N
b0000 O
b0000 P
b0000 Q
b0000 R
b0000 S
b0000 T
0U
0V
0W
0X
0Y
0Z
0[
0\
0]
b000001 ^
b000000 _
b000001 `
0a
0b
0c
0d
0e
0f
0g
0h
b00000000000000000000000000000000 i
b000 j
0k
0l
0m
0n
0o
0p
0q
0r
0s
0t
0u
b00000000000 v
b0000000000000000 w
b0000000000000000 x
b00000000000000000000000000000000 y
b00000000000000000000000000000000 z
b00000000000000000000000000000000 {
b00000000000000000000000000000000 |
b00000000000000000000000000000000 }
b00000000000000000000000000000000 ~
0!!
0"!
0#!
0$!
0%!
0&!
1'!
0(!
0)!
1*!
0+!
0,!
0-!
0.!
0/!
b101001 0!
01!
b010100110100001001011111010011000101011001000011010011010100111101010011 2!
05!
06!
07!
08!
09!
0:!
b010101 ;!
0<!
1=!
0>!
0?!
0@!
0A!
0B!
0C!
0D!
0E!
0F!
0G!
0H!
0I!
0J!
0K!
0L!
0M!
0N!
0O!
0P!
b010100110100100101001101010100000100110001000101 Q!
b0000 S!
b0010001 T!
b011 U!
b001 V!
0W!
b00 X!
b00000000001 Y!
#12500
0*!
#25000
1#
b001 )
b000001 _
1a
b00000000000000000000000000000001 i
b00000000000000000000000000001000 y
b00000000000000000000000000001000 z
b00000000000000000000000000001000 {
b00000000000000000000000000001000 |
b00000000000000000000000000001000 }
b00000000000000000000000000001000 ~
1*!
1+!
#37500
0*!
#50000
b011 )
0,
1b
b00000000000000000000000000000010 i
1*!
#62500
1!!
0*!
#75000
b111 )
b00000000000000000000000000000011 i
1*!
#87500
0*!
#100000
b00000000000000000000000000000100 i
1*!
#112500
0*!
#125000
b00000000000000000000000000000101 i
1*!
#137500
0*!
#150000
b00000000000000000000000000000110 i
1*!
#162500
0*!
#175000
b00000000000000000000000000000111 i
1*!
#187500
0*!
#200000
b00000000000000000000000000001000 i
1*!
#212500
0*!
#225000
b00000000000000000000000000001001 i
1*!
#237500
0*!
#250000
b00000000000000000000000000001010 i
1*!
#262500
0*!
#275000
b00000000000000000000000000001011 i
1*!
#287500
0*!
#300000
b00000000000000000000000000001100 i
1*!
#312500
0*!
#325000
b00000000000000000000000000001101 i
1*!
#337500
0*!
#350000
b00000000000000000000000000001110 i
1*!
#362500
0*!
#375000
b00000000000000000000000000001111 i
1*!
#387500
0*!
#400000
b00000000000000000000000000010000 i
1*!
#412500
0*!
#425000
b00000000000000000000000000010001 i
1*!
#437500
0*!
#450000
b00000000000000000000000000010010 i
1*!
#462500
0*!
#475000
b00000000000000000000000000010011 i
1*!
#487500
0*!
#500000
b00000000000000000000000000010100 i
1*!
#512500
0*!
#525000
b00000000000000000000000000010101 i
1*!
#537500
0*!
#550000
b00000000000000000000000000010110 i
1*!
#562500
0*!
#575000
b00000000000000000000000000010111 i
1*!
#587500
0*!
#600000
b00000000000000000000000000011000 i
1*!
#612500
0*!
#625000
b00000000000000000000000000011001 i
1*!
#637500
0*!
#650000
b00000000000000000000000000011010 i
1*!
#662500
0*!
#675000
b00000000000000000000000000011011 i
1*!
#687500
0*!
#700000
b00000000000000000000000000011100 i
1*!
#712500
0*!
#725000
b00000000000000000000000000011101 i
1*!
#737500
0*!
#750000
b00000000000000000000000000011110 i
1*!
#762500
0*!
#775000
b00000000000000000000000000011111 i
1*!
#787500
0*!
#800000
b00000000000000000000000000100000 i
1*!
#812500
0*!
#825000
b00000000000000000000000000100001 i
1*!
#837500
0*!
#850000
b00000000000000000000000000100010 i
1*!
#862500
0*!
#875000
b00000000000000000000000000100011 i
1*!
#887500
0*!
#900000
b00000000000000000000000000100100 i
1*!
#912500
0*!
#925000
b00000000000000000000000000100101 i
1*!
#937500
0*!
#950000
b00000000000000000000000000100110 i
1*!
#962500
0*!
#975000
b00000000000000000000000000100111 i
1*!
#987500
0*!
#1000000
b00000000000000000000000000101000 i
1*!
#1012500
0*!
#1025000
b00000000000000000000000000101001 i
1*!
#1037500
0*!
#1050000
b00000000000000000000000000101010 i
1*!
#1062500
0*!
#1075000
b00000000000000000000000000101011 i
1*!
#1087500
0*!
#1100000
b00000000000000000000000000101100 i
1*!
#1112500
0*!
#1125000
b00000000000000000000000000101101 i
1*!
#1137500
0*!
#1150000
b00000000000000000000000000101110 i
1*!
#1162500
0*!
#1175000
b00000000000000000000000000101111 i
1*!
#1187500
0*!
#1200000
b00000000000000000000000000110000 i
1*!
#1212500
0*!
#1225000
b00000000000000000000000000110001 i
1*!
#1237500
0*!
#31400000
b1000000000000000000000000000000000000001 $
b101000 &
b111 (
b011 )
b0000000100000000000000000000000000000000 .
b0001000000000000 3
b00010000000000000000000000000000 ;
b00100000000000000000000000000000 <
b0010 D
b0001 T
1]
b000100 ^
b000100 _
b001000 `
b00000000000000000000010011101000 i
1&!
1*!
#31412500
0*!
#31425000
b000000 &
b111 )
b1000000000000000000000000000000000000001 .
10
b0100 D
b0011 T
0]
b001000 ^
b00000000000000000000010011101001 i
b0000000000000001 x
1*!
#31437500
0*!
#31450000
00
b00000000000000000000000000000001 1
b00000000000000000000000000000001 8
b0110 D
b0101 T
b001000 _
0a
1e
b00000000000000000000010011101010 i
1*!
#31462500
0*!
#31475000
b0000000000000001 4
b00000000000000000000000000000001 9
b1000 D
b0111 T
0b
1f
b00000000000000000000010011101011 i
1*!
0+!
#31487500
0!!
1#!
0*!
#31500000
b1010 D
b1001 T
b00000000000000000000010011101100 i
1*!
#31512500
0*!
#31525000
b1100 D
b1011 T
b00000000000000000000010011101101 i
1*!
#31537500
0*!
#31550000
b1110 D
b1101 T
b00000000000000000000010011101110 i
1*!
#31562500
0*!
#31575000
b0000 D
1L
b1111 T
b00000000000000000000010011101111 i
1*!
#31587500
0*!
#31600000
b0010 D
0L
b0001 T
1]
b010000 `
b00000000000000000000010011110000 i
1*!
#31612500
0*!
#31625000
b0100 D
b0011 T
0]
b010000 ^
b00000000000000000000010011110001 i
1*!
#31637500
0*!
#31650000
b0110 D
b0101 T
b010000 _
0e
1g
b00000000000000000000010011110010 i
1*!
#31662500
0*!
#31675000
b1000 D
b0111 T
0f
1h
b00000000000000000000010011110011 i
1*!
#31687500
0#!
1$!
0*!
#31700000
b1010 D
b1001 T
b00000000000000000000010011110100 i
1*!
#31712500
0*!
#31725000
b1100 D
b1011 T
b00000000000000000000010011110101 i
1*!
#31737500
0*!
#31750000
b1110 D
b1101 T
b00000000000000000000010011110110 i
1*!
#31762500
0*!
#31775000
b0000 D
1L
b1111 T
b00000000000000000000010011110111 i
1*!
#31787500
0*!
#31800000
b0010 D
0L
b0001 T
1]
b100000 `
b00000000000000000000010011111000 i
1*!
#31812500
0*!
#31825000
b0100 D
b0011 T
0]
b100000 ^
b00000000000000000000010011111001 i
1*!
#31837500
0*!
#31850000
b0110 D
b0101 T
b100000 _
1e
0g
b00000000000000000000010011111010 i
1*!
#31862500
0*!
#31875000
b1000 D
b0111 T
1f
0h
b00000000000000000000010011111011 i
1*!
#31887500
1#!
0$!
0*!
#31900000
b1010 D
b1001 T
b00000000000000000000010011111100 i
1*!
#31912500
0*!
#31925000
b1100 D
b1011 T
b00000000000000000000010011111101 i
1*!
#31937500
0*!
#31950000
b1110 D
b1101 T
b00000000000000000000010011111110 i
1*!
#31962500
0*!
#31975000
b0000 D
1L
b1111 T
b00000000000000000000010011111111 i
1*!
#31987500
0*!
#32000000
b0010 D
0L
b0001 T
1]
b000001 `
b00000000000000000000010100000000 i
1*!
#32012500
0*!
#32025000
b0100 D
b0011 T
0]
b000001 ^
b00000000000000000000010100000001 i
1*!
#32037500
0*!
#32050000
b0110 D
b0101 T
b000001 _
1a
0e
b00000000000000000000010100000010 i
1*!
#32062500
0*!
#32075000
b1000 D
b0111 T
1b
0f
b00000000000000000000010100000011 i
1*!
#32087500
1!!
0#!
0*!
#32100000
b1010 D
b1001 T
b00000000000000000000010100000100 i
1*!
#32112500
0*!
#32125000
b1100 D
b1011 T
b00000000000000000000010100000101 i
1*!
#32137500
0*!
#32150000
b1110 D
b1101 T
b00000000000000000000010100000110 i
1*!
#32162500
0*!
#32175000
b0000 D
1L
b1111 T
b00000000000000000000010100000111 i
1*!
#32187500
0*!
#32200000
b0010 D
0L
b0001 T
1]
b000010 `
b00000000000000000000010100001000 i
1*!
#32212500
0*!
#32225000
b0100 D
b0011 T
0]
b000010 ^
b00000000000000000000010100001001 i
1*!
#32237500
0*!
#32250000
b0110 D
b0101 T
b000010 _
0a
1c
b00000000000000000000010100001010 i
1*!
#32262500
0*!
#32275000
b1000 D
b0111 T
0b
1d
b00000000000000000000010100001011 i
1*!
#32287500
0!!
1"!
0*!
#32300000
b1010 D
b1001 T
b00000000000000000000010100001100 i
1*!
#32312500
0*!
#32325000
b1100 D
b1011 T
b00000000000000000000010100001101 i
1*!
#32337500
0*!
#32350000
b1110 D
b1101 T
b00000000000000000000010100001110 i
1*!
#32362500
0*!
#32375000
b0000 D
1L
b1111 T
b00000000000000000000010100001111 i
1*!
#32387500
0*!
#32400000
b0010 D
0L
b0001 T
1]
b000100 `
b00000000000000000000010100010000 i
1*!
#32412500
0*!
#32425000
b0100 D
b0011 T
0]
b000100 ^
b00000000000000000000010100010001 i
1*!
#32437500
0*!
#32450000
b0110 D
b0101 T
b000100 _
1a
0c
b00000000000000000000010100010010 i
1*!
#32462500
0*!
#32475000
b1000 D
b0111 T
1b
0d
b00000000000000000000010100010011 i
1*!
#32487500
1!!
0"!
0*!
#32500000
b1010 D
b1001 T
b00000000000000000000010100010100 i
1*!
#32512500
0*!
#32525000
b1100 D
b1011 T
b00000000000000000000010100010101 i
1*!
#32537500
0*!
#32550000
b1110 D
b1101 T
b00000000000000000000010100010110 i
1*!
#32562500
0*!
#32575000
b0000 D
1L
b1111 T
b00000000000000000000010100010111 i
1*!
#32587500
0*!
#32600000
b0010 D
0L
b0001 T
1]
b001000 `
b00000000000000000000010100011000 i
1*!
#32612500
0*!
#32625000
b0100 D
b0011 T
0]
b001000 ^
b00000000000000000000010100011001 i
1*!
#32637500
0*!
#32650000
b0110 D
b0101 T
b001000 _
0a
1e
b00000000000000000000010100011010 i
1*!
#32662500
0*!
#32675000
b1000 D
b0111 T
0b
1f
b00000000000000000000010100011011 i
1*!
#32687500
0!!
1#!
0*!
#32700000
b1010 D
b1001 T
b00000000000000000000010100011100 i
1*!
#32712500
0*!
#32725000
b1100 D
b1011 T
b00000000000000000000010100011101 i
1*!
#32737500
0*!
#32750000
b1110 D
b1101 T
b00000000000000000000010100011110 i
1*!
#32762500
0*!
#32775000
b0000 D
1L
b1111 T
b00000000000000000000010100011111 i
1*!
#32787500
0*!
#32800000
b0010 D
0L
b0001 T
1]
b010000 `
b00000000000000000000010100100000 i
1*!
#32812500
0*!
#32825000
b0100 D
b0011 T
0]
b010000 ^
b00000000000000000000010100100001 i
1*!
#32837500
0*!
#32850000
b0110 D
b0101 T
b010000 _
0e
1g
b00000000000000000000010100100010 i
1*!
#32862500
0*!
#32875000
b1000 D
b0111 T
0f
1h
b00000000000000000000010100100011 i
1*!
#32887500
0#!
1$!
0*!
#32900000
b1010 D
b1001 T
b00000000000000000000010100100100 i
1*!
#32912500
0*!
#32925000
b1100 D
b1011 T
b00000000000000000000010100100101 i
1*!
#32937500
0*!
#32950000
b1110 D
b1101 T
b00000000000000000000010100100110 i
1*!
#32962500
0*!
#32975000
b0000 D
1L
b1111 T
b00000000000000000000010100100111 i
1*!
#32987500
0*!
#33000000
b0010 D
0L
b0001 T
1]
b100000 `
b00000000000000000000010100101000 i
1*!
#33012500
0*!
#33025000
b0100 D
b0011 T
0]
b100000 ^
b00000000000000000000010100101001 i
1*!
#33037500
0*!
#33050000
b0110 D
b0101 T
b100000 _
1e
0g
b00000000000000000000010100101010 i
1*!
#33062500
0*!
#33075000
b1000 D
b0111 T
1f
0h
b00000000000000000000010100101011 i
1*!
#33087500
1#!
0$!
0*!
#33100000
b1010 D
b1001 T
b00000000000000000000010100101100 i
1*!
#33112500
0*!
#33125000
b1100 D
b1011 T
b00000000000000000000010100101101 i
1*!
#33137500
0*!
#33150000
b1110 D
b1101 T
b00000000000000000000010100101110 i
1*!
#33162500
0*!
#33175000
b0000 D
1L
b1111 T
b00000000000000000000010100101111 i
1*!
#33187500
0*!
#33200000
b0010 D
0L
b0001 T
1]
b000001 `
b00000000000000000000010100110000 i
1*!
#33212500
0*!
#33225000
b0100 D
b0011 T
0]
b000001 ^
b00000000000000000000010100110001 i
1*!
#33237500
0*!
#33250000
b0110 D
b0101 T
b000001 _
1a
0e
b00000000000000000000010100110010 i
1*!
#33262500
0*!
#33275000
b1000 D
b0111 T
1b
0f
b00000000000000000000010100110011 i
1*!
#33287500
1!!
0#!
0*!
#33300000
b1010 D
b1001 T
b00000000000000000000010100110100 i
1*!
#33312500
0*!
#33325000
b1100 D
b1011 T
b00000000000000000000010100110101 i
1*!
#33337500
0*!
#33350000
b1110 D
b1101 T
b00000000000000000000010100110110 i
1*!
#33362500
0*!
#33375000
b0000 D
1L
b1111 T
b00000000000000000000010100110111 i
1*!
#33387500
0*!
#33400000
b0010 D
0L
b0001 T
1]
b000010 `
b00000000000000000000010100111000 i
1*!
#33412500
0*!
#33425000
b0100 D
b0011 T
0]
b000010 ^
b00000000000000000000010100111001 i
1*!
#33437500
0*!
#33450000
b0110 D
b0101 T
b000010 _
0a
1c
b00000000000000000000010100111010 i
1*!
#33462500
0*!
#33475000
b1000 D
b0111 T
0b
1d
b00000000000000000000010100111011 i
1*!
#33487500
0!!
1"!
0*!
#33500000
b1010 D
b1001 T
b00000000000000000000010100111100 i
1*!
#33512500
0*!
#33525000
b1100 D
b1011 T
b00000000000000000000010100111101 i
1*!
#33537500
0*!
#33550000
b1110 D
b1101 T
b00000000000000000000010100111110 i
1*!
#33562500
0*!
#33575000
b0000 D
1L
b1111 T
b00000000000000000000010100111111 i
1*!
#33587500
0*!
#33600000
b0010 D
0L
b0001 T
1]
b000100 `
b00000000000000000000010101000000 i
1*!
#33612500
0*!
#33625000
b0100 D
b0011 T
0]
b000100 ^
b00000000000000000000010101000001 i
1*!
#33637500
0*!
#33650000
b0110 D
b0101 T
b000100 _
1a
0c
b00000000000000000000010101000010 i
1*!
#33662500
0*!
#33675000
b1000 D
b0111 T
1b
0d
b00000000000000000000010101000011 i
1*!
#33687500
1!!
0"!
0*!
#33700000
b1010 D
b1001 T
b00000000000000000000010101000100 i
1*!
#33712500
0*!
#33725000
b1100 D
b1011 T
b00000000000000000000010101000101 i
1*!
#33737500
0*!
#33750000
b1110 D
b1101 T
b00000000000000000000010101000110 i
1*!
#33762500
0*!
#33775000
b0000 D
1L
b1111 T
b00000000000000000000010101000111 i
1*!
#33787500
0*!
#33800000
b0010 D
0L
b0001 T
1]
b001000 `
b00000000000000000000010101001000 i
1*!
#33812500
0*!
#33825000
b0100 D
b0011 T
0]
b001000 ^
b00000000000000000000010101001001 i
1*!
#33837500
0*!
#33850000
b0110 D
b0101 T
b001000 _
0a
1e
b00000000000000000000010101001010 i
1*!
#33862500
0*!
#33875000
b1000 D
b0111 T
0b
1f
b00000000000000000000010101001011 i
1*!
#33887500
0!!
1#!
0*!
#33900000
b1010 D
b1001 T
b00000000000000000000010101001100 i
1*!
#33912500
0*!
#33925000
b1100 D
b1011 T
b00000000000000000000010101001101 i
1*!
#33937500
0*!
#33950000
b1110 D
b1101 T
b00000000000000000000010101001110 i
1*!
#33962500
0*!
#33975000
b0000 D
1L
b1111 T
b00000000000000000000010101001111 i
1*!
#33987500
0*!
#34000000
b0010 D
0L
b0001 T
1]
b010000 `
b00000000000000000000010101010000 i
1*!
#34012500
0*!
#34025000
b0100 D
b0011 T
0]
b010000 ^
b00000000000000000000010101010001 i
1*!
#34037500
0*!
#34050000
b0110 D
b0101 T
b010000 _
0e
1g
b00000000000000000000010101010010 i
1*!
#34062500
0*!
#34075000
b1000 D
b0111 T
0f
1h
b00000000000000000000010101010011 i
1*!
#34087500
0#!
1$!
0*!
#34100000
b1010 D
b1001 T
b00000000000000000000010101010100 i
1*!
#34112500
0*!
#34125000
b1100 D
b1011 T
b00000000000000000000010101010101 i
1*!
#34137500
0*!
#34150000
b1110 D
b1101 T
b00000000000000000000010101010110 i
1*!
#34162500
0*!
#34175000
b0000 D
1L
b1111 T
b00000000000000000000010101010111 i
1*!
#34187500
0*!
#34200000
b0010 D
0L
b0001 T
1]
b100000 `
b00000000000000000000010101011000 i
1*!
#34212500
0*!
#34225000
b0100 D
b0011 T
0]
b100000 ^
b00000000000000000000010101011001 i
1*!
#34237500
0*!
#34250000
b0110 D
b0101 T
b100000 _
1e
0g
b00000000000000000000010101011010 i
1*!
#34262500
0*!
#34275000
b1000 D
b0111 T
1f
0h
b00000000000000000000010101011011 i
1*!
#34287500
1#!
0$!
0*!
#34300000
b1010 D
b1001 T
b00000000000000000000010101011100 i
1*!
#34312500
0*!
#34325000
b1100 D
b1011 T
b00000000000000000000010101011101 i
1*!
#34337500
0*!
#34350000
b1110 D
b1101 T
b00000000000000000000010101011110 i
1*!
#34362500
0*!
#34375000
b0000 D
1L
b1111 T
b00000000000000000000010101011111 i
1*!
#34387500
0*!
#34400000
b0010 D
0L
b0001 T
1]
b000001 `
b00000000000000000000010101100000 i
1*!
#34412500
0*!
#34425000
b0100 D
b0011 T
0]
b000001 ^
b00000000000000000000010101100001 i
1*!
#34437500
0*!
#34450000
b0110 D
b0101 T
b000001 _
1a
0e
b00000000000000000000010101100010 i
1*!
#34462500
0*!
#34475000
b1000 D
b0111 T
1b
0f
b00000000000000000000010101100011 i
1*!
#34487500
1!!
0#!
0*!
#34500000
b1010 D
b1001 T
b00000000000000000000010101100100 i
1*!
#34512500
0*!
#34525000
b1100 D
b1011 T
b00000000000000000000010101100101 i
1*!
#34537500
0*!
#34550000
b1110 D
b1101 T
b00000000000000000000010101100110 i
1*!
#34562500
0*!
#34575000
b0000 D
1L
b1111 T
b00000000000000000000010101100111 i
1*!
#34587500
0*!
